{
  "$schema": "https://schema.management.azure.com/schemas/2015-01-01/deploymentTemplate.json",
  "contentVersion": "1.0.0.0",
  "parameters": {
    "vmSku": {
      "type": "string",
      "defaultValue": "Standard_B1s",
      "metadata": {
        "description": "Size of VMs in the VM Scale Set."
      }
    },
    "vmssName": {
      "type": "string",
      "metadata": {
        "description": "String used as a base for naming resources. Must be 3-61 characters in length and globally unique across Azure. A hash is prepended to this string for some resources, and resource-specific information is appended."
      },
      "maxLength": 61
    },
    "instanceCount": {
      "type": "int",
      "metadata": {
        "description": "Number of VM instances (100 or less)."
      },
      "defaultValue": 2,
      "maxValue": 2
    },
    "adminUsername": {
      "type": "string",
      "metadata": {
        "description": "Admin username on all VMs."
      }
    },
    "adminPublicKey": {
      "type": "string",
      "metadata": {
        "description": "Admin password on all VMs."
      }
    },
    "_artifactsLocation": {
      "defaultValue": "https://raw.githubusercontent.com/Azure/azure-quickstart-templates/master/201-vmss-custom-script-windows",
      "type": "string",
      "metadata": {
        "description": "The base URI where artifacts required by this template are located. When the template is deployed using the accompanying scripts, a private location in the subscription will be used and this value will be automatically generated."
      }
    },
    "_artifactsLocationSasToken": {
      "defaultValue": "",
      "type": "securestring",
      "metadata": {
        "description": "The sasToken required to access _artifactsLocation. When the template is deployed using the accompanying scripts, a sasToken will be automatically generated."
      }
    }
  },
  "variables": {
    "vnetName": "vnet",
    "subnetName": "subnet",
    "subnetRef": "[resourceId('Microsoft.Network/virtualNetworks/subnets', variables('vnetName'), variables('subnetName'))]",
    "publicIPAddressName": "pip",
    "loadBalancerName": "loadBalancer",
    "loadBalancerFrontEndName": "loadBalancerFrontEnd",
    "loadBalancerBackEndName": "loadBalancerBackEnd",
    "loadBalancerProbeName": "loadBalancerHttpProbe",
    "loadBalancerNatPoolName": "loadBalancerNatPool"
  },
  "resources": [
    {
      "type": "Microsoft.Compute/virtualMachineScaleSets",
      "name": "[parameters('vmssName')]",
      "location": "[resourceGroup().location]",
      "apiVersion": "2017-03-30",
      "dependsOn": [
        "[concat('Microsoft.Network/virtualNetworks/', variables('vnetName'))]",
        "[resourceId('Microsoft.Network/loadBalancers', variables('loadBalancerName'))]"
      ],
      "sku": {
        "name": "[parameters('vmSku')]",
        "capacity": "[parameters('instanceCount')]"
      },
      "properties": {
        "overprovision": "true",
        "upgradePolicy": {
          "mode": "Manual"
        },
        "virtualMachineProfile": {
          "storageProfile": {
            "osDisk": {
              "createOption": "FromImage",
              "caching": "ReadWrite"
            },
            "imageReference": {
              "publisher": "RedHat",
              "offer": "RHEL",
              "sku": "7.4",
              "version": "latest"
            }
          },
          "osProfile": {
            "computerNamePrefix": "[parameters('vmssName')]",
            "adminUsername": "[parameters('adminUsername')]",
            "linuxConfiguration": {
              "disablePasswordAuthentication": true,
              "ssh": {
                  "publicKeys": [
                      {
                          "path": "[concat('/home/', parameters('adminUsername'), '/.ssh/authorized_keys')]",
                          "keyData": "[parameters('adminPublicKey')]"
                      }
                  ]
              }
          }
          },
          "networkProfile": {
            "networkInterfaceConfigurations": [
              {
                "name": "nic",
                "properties": {
                  "primary": true,
                  "ipConfigurations": [
                    {
                      "name": "ipconfig",
                      "properties": {
                        "subnet": {
                          "id": "[variables('subnetRef')]"
                        },
                        "loadBalancerBackendAddressPools": [
                          {
                            "id": "[concat('/subscriptions/', subscription().subscriptionId,'/resourceGroups/', resourceGroup().name, '/providers/Microsoft.Network/loadBalancers/', variables('loadBalancerName'), '/backendAddressPools/', variables('loadBalancerBackEndName'))]"
                          }
                        ],
                        "loadBalancerInboundNatPools": [
                          {
                            "id": "[concat('/subscriptions/', subscription().subscriptionId,'/resourceGroups/', resourceGroup().name, '/providers/Microsoft.Network/loadBalancers/', variables('loadBalancerName'), '/inboundNatPools/', variables('loadBalancerNatPoolName'))]"
                          }
                        ]
                      }
                    }
                  ]
                }
              }
            ]
          },
          "extensionProfile": {
            "extensions": [
              {
                "name": "customScript",
                "properties": {
                  "publisher": "Microsoft.Compute",
                  "settings": {
                    "fileUris": [
                      "[concat(parameters('_artifactsLocation'), '/scripts/helloWorld.sh')]"
                    ]
                  },
                  "typeHandlerVersion": "1.8",
                  "autoUpgradeMinorVersion": true,
                  "protectedSettings": {
                    "commandToExecute": "a+x helloWorld.sh",
                    "commandToExecute": "./helloWorld.sh"
                  },
                  "type": "CustomScriptExtension"
                }
              }
            ]
          }
        }
      }
    },
    {
      "type": "Microsoft.Network/virtualNetworks",
      "name": "[variables('vnetName')]",
      "location": "[resourceGroup().location]",
      "apiVersion": "2017-04-01",
      "properties": {
        "addressSpace": {
          "addressPrefixes": [
            "10.0.0.0/16"
          ]
        },
        "subnets": [
          {
            "name": "[variables('subnetName')]",
            "properties": {
              "addressPrefix": "10.0.0.0/24"
            }
          }
        ]
      }
    },
    {
      "type": "Microsoft.Network/publicIPAddresses",
      "name": "[variables('publicIPAddressName')]",
      "location": "[resourceGroup().location]",
      "apiVersion": "2017-04-01",
      "properties": {
        "publicIPAllocationMethod": "Dynamic",
        "dnsSettings": {
          "domainNameLabel": "[toLower(parameters('vmssName'))]"
        }
      }
    },
    {
      "type": "Microsoft.Network/loadBalancers",
      "name": "[variables('loadBalancerName')]",
      "location": "[resourceGroup().location]",
      "apiVersion": "2017-04-01",
      "dependsOn": [
        "[concat('Microsoft.Network/publicIPAddresses/', variables('publicIPAddressName'))]"
      ],
      "properties": {
        "frontendIPConfigurations": [
          {
            "name": "[variables('loadBalancerFrontEndName')]",
            "properties": {
              "publicIPAddress": {
                "id": "[resourceId('Microsoft.Network/publicIPAddresses', variables('publicIPAddressName'))]"
              }
            }
          }
        ],
        "backendAddressPools": [
          {
            "name": "[variables('loadBalancerBackendName')]"
          }
        ],
        "loadBalancingRules": [
          {
            "name": "roundRobinLBRule",
            "properties": {
              "frontendIPConfiguration": {
                "id": "[concat(resourceId('Microsoft.Network/loadBalancers', variables('loadBalancerName')), '/frontendIPConfigurations/', variables('loadBalancerFrontEndName'))]"
              },
              "backendAddressPool": {
                "id": "[concat(resourceId('Microsoft.Network/loadBalancers', variables('loadBalancerName')), '/backendAddressPools/', variables('loadBalancerBackendName'))]"
              },
              "protocol": "Tcp",
              "frontendPort": 80,
              "backendPort": 80,
              "enableFloatingIP": false,
              "idleTimeoutInMinutes": 5,
              "probe": {
                "id": "[concat(resourceId('Microsoft.Network/loadBalancers', variables('loadBalancerName')), '/probes/', variables('loadBalancerProbeName'))]"
              }
            }
          }
        ],
        "probes": [
          {
            "name": "[variables('loadBalancerProbeName')]",
            "properties": {
              "protocol": "Tcp",
              "port": 80,
              "intervalInSeconds": "5",
              "numberOfProbes": "2"
            }
          }
        ],
        "inboundNatPools": [
          {
            "name": "[variables('loadBalancerNatPoolName')]",
            "properties": {
              "frontendIPConfiguration": {
                "id": "[concat(resourceId('Microsoft.Network/loadBalancers', variables('loadBalancerName')), '/frontendIPConfigurations/', variables('loadBalancerFrontEndName'))]"
              },
              "protocol": "Tcp",
              "frontendPortRangeStart": 22,
              "frontendPortRangeEnd": 27,
              "backendPort": 3389
            }
          }
        ]
      }
    }
  ]
}