{
    "$schema": "https://schema.management.azure.com/schemas/2015-01-01/deploymentTemplate.json#",
    "contentVersion": "1.0.0.0",
    "parameters": {},
    "variables": {
        "location": "[resourceGroup().location]",
        "networkSecurityGroupName": "bobbynsg"
    },
    "resources": [
        {
            "type": "Microsoft.Network/networkSecurityGroups",
            "apiVersion": "2018-11-01",
            "name": "[variables('networkSecurityGroupName')]",
            "location": "[variables('location')]",
            "properties": {
              "securityRules": [
                {
                  "name": "ssh_rule",
                  "properties": {
                    "description": "Locks inbound down to ssh default port 22.",
                    "protocol": "Tcp",
                    "sourcePortRange": "*",
                    "destinationPortRange": "22",
                    "sourceAddressPrefix": "*",
                    "destinationAddressPrefix": "*",
                    "access": "Allow",
                    "priority": 123,
                    "direction": "Inbound"
                  }
                }
              ]
            }}
    ],
    "outputs": {}
}